…
    ## # A tibble: 1 × 1
    ##   `n_distinct(aisle_id)`
    ##                    <int>
    ## 1                    134

``` r
print(instacart)
```

    ## # A tibble: 1,384,617 × 15
    ##    order_id product_id add_to_…¹ reord…² user_id eval_…³ order…⁴ order…⁵ order…⁶
    ##       <int>      <int>     <int>   <int>   <int> <chr>     <int>   <int>   <int>
    ##  1        1      49302         1       1  112108 train         4       4      10
    ##  2        1      11109         2       1  112108 train         4       4      10
    ##  3        1      10246         3       0  112108 train         4       4      10
    ##  4        1      49683         4       0  112108 train         4       4      10
    ##  5        1      43633         5       1  112108 train         4       4      10
    ##  6        1      13176         6       0  112108 train         4       4      10
    ##  7        1      47209         7       0  112108 train         4       4      10
    ##  8        1      22035         8       1  112108 train         4       4      10
    ##  9       36      39612         1       0   79431 train        23       6      18
    ## 10       36      19660         2       1   79431 train        23       6      18
    ## # … with 1,384,607 more rows, 6 more variables: days_since_prior_order <int>,
    ## #   product_name <chr>, aisle_id <int>, department_id <int>, aisle <chr>,
    ## #   department <chr>, and abbreviated variable names ¹​add_to_cart_order,
    ## #   ²​reordered, ³​eval_set, ⁴​order_number, ⁵​order_dow, ⁶​order_hour_of_day
…
    ## # A tibble: 2 × 2
    ##   aisle                 n
    ##   <chr>             <int>
    ## 1 fresh fruits     150473
    ## 2 fresh vegetables 150609

``` r
print(instacart)
```

    ## # A tibble: 1,384,617 × 15
    ##    order_id product_id add_to_…¹ reord…² user_id eval_…³ order…⁴ order…⁵ order…⁶
    ##       <int>      <int>     <int>   <int>   <int> <chr>     <int>   <int>   <int>
    ##  1        1      49302         1       1  112108 train         4       4      10
    ##  2        1      11109         2       1  112108 train         4       4      10
    ##  3        1      10246         3       0  112108 train         4       4      10
    ##  4        1      49683         4       0  112108 train         4       4      10
    ##  5        1      43633         5       1  112108 train         4       4      10
    ##  6        1      13176         6       0  112108 train         4       4      10
    ##  7        1      47209         7       0  112108 train         4       4      10
    ##  8        1      22035         8       1  112108 train         4       4      10
    ##  9       36      39612         1       0   79431 train        23       6      18
    ## 10       36      19660         2       1   79431 train        23       6      18
    ## # … with 1,384,607 more rows, 6 more variables: days_since_prior_order <int>,
    ## #   product_name <chr>, aisle_id <int>, department_id <int>, aisle <chr>,
    ## #   department <chr>, and abbreviated variable names ¹​add_to_cart_order,
    ## #   ²​reordered, ³​eval_set, ⁴​order_number, ⁵​order_dow, ⁶​order_hour_of_day
…
``` r
print(instacart)
```

    ## # A tibble: 1,384,617 × 15
    ##    order_id product_id add_to_…¹ reord…² user_id eval_…³ order…⁴ order…⁵ order…⁶
    ##       <int>      <int>     <int>   <int>   <int> <chr>     <int>   <int>   <int>
    ##  1        1      49302         1       1  112108 train         4       4      10
    ##  2        1      11109         2       1  112108 train         4       4      10
    ##  3        1      10246         3       0  112108 train         4       4      10
    ##  4        1      49683         4       0  112108 train         4       4      10
    ##  5        1      43633         5       1  112108 train         4       4      10
    ##  6        1      13176         6       0  112108 train         4       4      10
    ##  7        1      47209         7       0  112108 train         4       4      10
    ##  8        1      22035         8       1  112108 train         4       4      10
    ##  9       36      39612         1       0   79431 train        23       6      18
    ## 10       36      19660         2       1   79431 train        23       6      18
    ## # … with 1,384,607 more rows, 6 more variables: days_since_prior_order <int>,
    ## #   product_name <chr>, aisle_id <int>, department_id <int>, aisle <chr>,
    ## #   department <chr>, and abbreviated variable names ¹​add_to_cart_order,
    ## #   ²​reordered, ³​eval_set, ⁴​order_number, ⁵​order_dow, ⁶​order_hour_of_day
…
    ## Rows: 35 Columns: 1443
    ## ── Column specification ────────────────────────────────────────────────────────
    ## Delimiter: ","
    ## chr    (1): day
    ## dbl (1442): week, day_id, activity.1, activity.2, activity.3, activity.4, ac...
    ## 
    ## ℹ Use `spec()` to retrieve the full column specification for this data.
    ## ℹ Specify the column types or set `show_col_types = FALSE` to quiet this message.

``` r
print(accel_data)
```

    ## # A tibble: 50,400 × 6
    ##     week day_id day    minutes activity day_type
    ##    <dbl>  <dbl> <fct>    <dbl>    <dbl> <fct>   
    ##  1     1      1 Friday       1     88.4 weekday 
    ##  2     1      1 Friday       2     82.2 weekday 
    ##  3     1      1 Friday       3     64.4 weekday 
    ##  4     1      1 Friday       4     70.0 weekday 
    ##  5     1      1 Friday       5     75.0 weekday 
    ##  6     1      1 Friday       6     66.3 weekday 
    ##  7     1      1 Friday       7     53.8 weekday 
    ##  8     1      1 Friday       8     47.8 weekday 
    ##  9     1      1 Friday       9     55.5 weekday 
    ## 10     1      1 Friday      10     43.0 weekday 
    ## # … with 50,390 more rows
…
``` r
print(accel_data_24)
```

    ## # A tibble: 50,400 × 6
    ##     week day_id day    minutes activity day_type
    ##    <dbl>  <dbl> <fct>    <dbl>    <dbl> <fct>   
    ##  1     1      1 Friday       1     88.4 weekday 
    ##  2     1      1 Friday       2     82.2 weekday 
    ##  3     1      1 Friday       3     64.4 weekday 
    ##  4     1      1 Friday       4     70.0 weekday 
    ##  5     1      1 Friday       5     75.0 weekday 
    ##  6     1      1 Friday       6     66.3 weekday 
    ##  7     1      1 Friday       7     53.8 weekday 
    ##  8     1      1 Friday       8     47.8 weekday 
    ##  9     1      1 Friday       9     55.5 weekday 
    ## 10     1      1 Friday      10     43.0 weekday 
    ## # … with 50,390 more rows
…
``` r
print(ny_noaa_tidy)
```

    ## # A tibble: 2,595,176 × 9
    ##    id           year month    date   prcp  snow  snwd  tmax  tmin
    ##    <chr>       <int> <chr>    <chr> <dbl> <dbl> <dbl> <dbl> <dbl>
    ##  1 US1NYAB0001  2007 December 01     0.46   6.4   6.4    NA    NA
    ##  2 US1NYAB0001  2007 December 02     0      0     6.4    NA    NA
    ##  3 US1NYAB0001  2007 December 03     1.17   1.3   2.5    NA    NA
    ##  4 US1NYAB0001  2007 December 04     0.15   3     5.1    NA    NA
    ##  5 US1NYAB0001  2007 December 05     0.05   0.8   5.1    NA    NA
    ##  6 US1NYAB0001  2007 December 06     0.03   0.5   5.1    NA    NA
    ##  7 US1NYAB0001  2007 December 07     0      0     5.1    NA    NA
    ##  8 US1NYAB0001  2007 December 08     0      0     5.1    NA    NA
    ##  9 US1NYAB0001  2007 December 09     0      0     3.8    NA    NA
    ## 10 US1NYAB0001  2007 December 10     0.46   0.3   2.5    NA    NA
    ## # … with 2,595,166 more rows
…
